Requete8;Requete7;Requete9;Requete4;Requete3;Requete6;Requete10;Requete5;Requete2;Requete1;
Requete8;Requete7;Requete9;Requete4;Requete3;Requete6;Requete10;Requete5;Requete2;Requete1;
Requete8;Requete7;Requete9;Requete4;Requete3;Requete6;Requete10;Requete5;Requete2;Requete1;
Requete8;Requete7;Requete9;Requete4;Requete3;Requete6;Requete10;Requete5;Requete2;Requete1;
100;9967;9892;10461;9;20246;215;16;144;17;10393;
200;20219;19696;20742;31;39993;205;21;125;31;20000;
400;41803;39525;41465;24;81447;212;44;125;31;40431;
300;31497;29764;31415;25;61299;204;34;122;31;30421;
